\relax 
\catcode `"\active 
\select@language{ngerman}
\@writefile{toc}{\select@language{ngerman}}
\@writefile{lof}{\select@language{ngerman}}
\@writefile{lot}{\select@language{ngerman}}
\@writefile{toc}{\contentsline {section}{\numberline {1}Assembler}{1}}
\@writefile{toc}{\contentsline {subsection}{\numberline {1.1}Assembler Befehle}{1}}
\@writefile{toc}{\contentsline {subsection}{\numberline {1.2}Flags}{2}}
\@writefile{toc}{\contentsline {subsubsection}{\numberline {1.2.1}Zero Flag}{2}}
\@writefile{toc}{\contentsline {subsubsection}{\numberline {1.2.2}Negativ Flag}{2}}
\@writefile{toc}{\contentsline {subsubsection}{\numberline {1.2.3}Carry Flag}{2}}
\@writefile{toc}{\contentsline {subsubsection}{\numberline {1.2.4}Overflow Flag}{2}}
\@writefile{toc}{\contentsline {section}{\numberline {2}Negative Zahlen}{2}}
\@writefile{toc}{\contentsline {subsection}{\numberline {2.1}Betrag mit Vorzeichen}{2}}
\@writefile{toc}{\contentsline {subsection}{\numberline {2.2}Einer Komplement}{2}}
\@writefile{toc}{\contentsline {subsection}{\numberline {2.3}Zweier Komplement}{3}}
\@writefile{toc}{\contentsline {subsection}{\numberline {2.4}Excess-Darstellung}{3}}
\@writefile{toc}{\contentsline {section}{\numberline {3}IEEE/Kommazahlenumrechnung}{3}}
\@writefile{toc}{\contentsline {subsection}{\numberline {3.1}Bin\IeC {\"a}r zu Dezimal}{3}}
\@writefile{toc}{\contentsline {subsection}{\numberline {3.2}Dezimal zu Bin\IeC {\"a}r}{3}}
